%YAML 1.1
%TAG !u! tag:unity3d.com,2011:
--- !u!1001 &7386929698252893507
PrefabInstance:
  m_ObjectHideFlags: 0
  serializedVersion: 2
  m_Modification:
    serializedVersion: 3
    m_TransformParent: {fileID: 0}
    m_Modifications:
    - target: {fileID: 2608579625006489679, guid: 1f07172a327dc084689344860059de10, type: 3}
      propertyPath: m_Name
      value: enemigoFaseFinal Variant
      objectReference: {fileID: 0}
    - target: {fileID: 2608579625006489679, guid: 1f07172a327dc084689344860059de10, type: 3}
      propertyPath: m_TagString
      value: EnemyLastZone
      objectReference: {fileID: 0}
    - target: {fileID: 3420582828044532469, guid: 1f07172a327dc084689344860059de10, type: 3}
      propertyPath: m_LocalPosition.x
      value: 17.880451
      objectReference: {fileID: 0}
    - target: {fileID: 3420582828044532469, guid: 1f07172a327dc084689344860059de10, type: 3}
      propertyPath: m_LocalPosition.y
      value: 5.1
      objectReference: {fileID: 0}
    - target: {fileID: 3420582828044532469, guid: 1f07172a327dc084689344860059de10, type: 3}
      propertyPath: m_LocalPosition.z
      value: 238.37044
      objectReference: {fileID: 0}
    - target: {fileID: 3420582828044532469, guid: 1f07172a327dc084689344860059de10, type: 3}
      propertyPath: m_LocalRotation.w
      value: 1
      objectReference: {fileID: 0}
    - target: {fileID: 3420582828044532469, guid: 1f07172a327dc084689344860059de10, type: 3}
      propertyPath: m_LocalRotation.x
      value: 0
      objectReference: {fileID: 0}
    - target: {fileID: 3420582828044532469, guid: 1f07172a327dc084689344860059de10, type: 3}
      propertyPath: m_LocalRotation.y
      value: 0
      objectReference: {fileID: 0}
    - target: {fileID: 3420582828044532469, guid: 1f07172a327dc084689344860059de10, type: 3}
      propertyPath: m_LocalRotation.z
      value: 0
      objectReference: {fileID: 0}
    - target: {fileID: 3420582828044532469, guid: 1f07172a327dc084689344860059de10, type: 3}
      propertyPath: m_LocalEulerAnglesHint.x
      value: 0
      objectReference: {fileID: 0}
    - target: {fileID: 3420582828044532469, guid: 1f07172a327dc084689344860059de10, type: 3}
      propertyPath: m_LocalEulerAnglesHint.y
      value: 0
      objectReference: {fileID: 0}
    - target: {fileID: 3420582828044532469, guid: 1f07172a327dc084689344860059de10, type: 3}
      propertyPath: m_LocalEulerAnglesHint.z
      value: 0
      objectReference: {fileID: 0}
    m_RemovedComponents:
    - {fileID: 360326814823623339, guid: 1f07172a327dc084689344860059de10, type: 3}
    m_RemovedGameObjects: []
    m_AddedGameObjects: []
    m_AddedComponents:
    - targetCorrespondingSourceObject: {fileID: 2608579625006489679, guid: 1f07172a327dc084689344860059de10, type: 3}
      insertIndex: -1
      addedObject: {fileID: 7026204520103964898}
  m_SourcePrefab: {fileID: 100100000, guid: 1f07172a327dc084689344860059de10, type: 3}
--- !u!195 &4790939896457738433 stripped
NavMeshAgent:
  m_CorrespondingSourceObject: {fileID: 2665976083718444418, guid: 1f07172a327dc084689344860059de10, type: 3}
  m_PrefabInstance: {fileID: 7386929698252893507}
  m_PrefabAsset: {fileID: 0}
--- !u!1 &4805389410058161420 stripped
GameObject:
  m_CorrespondingSourceObject: {fileID: 2608579625006489679, guid: 1f07172a327dc084689344860059de10, type: 3}
  m_PrefabInstance: {fileID: 7386929698252893507}
  m_PrefabAsset: {fileID: 0}
--- !u!114 &7026204520103964898
MonoBehaviour:
  m_ObjectHideFlags: 0
  m_CorrespondingSourceObject: {fileID: 0}
  m_PrefabInstance: {fileID: 0}
  m_PrefabAsset: {fileID: 0}
  m_GameObject: {fileID: 4805389410058161420}
  m_Enabled: 1
  m_EditorHideFlags: 0
  m_Script: {fileID: 11500000, guid: 080b7e94ba80bda4eba9823bfcbbacd6, type: 3}
  m_Name: 
  m_EditorClassIdentifier: 
  agent: {fileID: 4790939896457738433}
  player: {fileID: 0}
  whatIsGround:
    serializedVersion: 2
    m_Bits: 1024
  whatisPlayer:
    serializedVersion: 2
    m_Bits: 64
  lz: {fileID: 0}
  walkPoint: {x: 0, y: 0, z: 0}
  walkPointRange: 0
  attackCd: 1.5
  projectile: {fileID: 6132488584219888394, guid: f47e141dc8fbd9d44a31e9638f2acd28, type: 3}
  attackSpeed: 30
  sightRange: 8
  attackRange: 8
  playerInSightRange: 0
  playerInAttackRange: 0
  patroling: 0
  chasing: 0
  attacking: 0
